


                                                                Strategy Tester Report
                                                             EA31337-Lite-Release-v1.078
                                                                     (Build 1010)

Symbol                            EURUSD (Euro vs US Dollar)
Period                            30 Minutes (M30) 2018.11.01 01:00 - 2018.11.29 23:30 (2018.11.01 - 2018.11.30)
Model                             Every tick (the most precise method based on all available least timeframes)
                                  __EA_Parameters__="-- Input EA parameters for EA31337 Rider v1.078 --"; __Trade_Parameters__="-- Trade parameters -
                                  -"; MaxOrders=0; MaxOrdersPerType=0; MaxOrdersPerDay=0; LotSize=0; LotSizeIncreaseMethod=202;
                                  LotSizeDecreaseMethod=167; TradeMicroLots=true; MinVolumeToTrade=2; MaxOrderPriceSlippage=50; MaxTries=5;
                                  MinPipChangeToTrade=0; MinPipGap=10; MinIntervalSec=0; __EA_Order_Parameters__="-- Profit and loss parameters --";
                                  TakeProfitMax=0; StopLossMax=40; __EA_Trailing_Parameters__="-- Profit and loss trailing parameters --";
                                  TrailingStop=50; TrailingProfit=0; TrailingStopAddPerMinute=0.3; __EA_Risk_Parameters__="-- Risk management
                                  parameters --"; RiskMarginPerOrder=1; RiskMarginTotal=10; RiskRatio=0; RiskRatioIncreaseMethod=0;
                                  RiskRatioDecreaseMethod=0; InitNoOfDaysToWarmUp=14; CloseOrderAfterXHours=96; ApplySpreadLimits=true;
                                  MaxSpreadToTrade=10; __Strategy_Parameters__="-- Per strategy parameters (0 to disable) --";
                                  ProfitFactorMinToTrade=0.9; ProfitFactorMaxToTrade=0; InitNoOfOrdersToCalcPF=20;
                                  __Strategy_Boosting_Parameters__="-- Strategy boosting parameters (set 1.0 for default) --";
                                  Boosting_Enabled=false; BoostTrendFactor=0.9; StrategyBoostByPF=true; StrategyHandicapByPF=true;
                                  BestDailyStrategyMultiplierFactor=1; BestWeeklyStrategyMultiplierFactor=1; BestMonthlyStrategyMultiplierFactor=1;
                                  WorseDailyStrategyMultiplierFactor=1; WorseWeeklyStrategyMultiplierFactor=1;
                                  WorseMonthlyStrategyMultiplierFactor=1; ConWinsIncreaseFactor=0.4; ConLossesIncreaseFactor=0.7;
                                  ConFactorOrdersLimit=600; __SmartQueue_Parameters__="-- Smart queue parameters --"; SmartQueueActive=true;
                                  SmartQueueMethod=11; SmartQueueFilter=91; __EA_Account_Conditions__="-- Account conditions --";
                                  Account_Conditions_Active=false; Account_Condition_MinProfitCloseOrder=20; __EA_Account_Conditions_Params__="-
                                  - Account conditions parameters --"; MarketSpecificHour=3; CloseConditionOnlyProfitable=true;
Parameters                        CloseConditionCustom1Method=0; CloseConditionCustom2Method=0; CloseConditionCustom3Method=0;
                                  CloseConditionCustom4Method=0; CloseConditionCustom5Method=0; CloseConditionCustom6Method=0; __AC_Parameters__="-
                                  - Settings for the Bill Williams' Accelerator/Decelerator oscillator --"; AC_Active_Tf=0; AC_SignalLevel=0.0004;
                                  AC_Shift=0; AC1_SignalMethod=0; AC5_SignalMethod=0; AC15_SignalMethod=0; AC30_SignalMethod=0; AC1_OpenCondition1=0;
                                  AC1_OpenCondition2=0; AC5_OpenCondition1=0; AC5_OpenCondition2=0; AC15_OpenCondition1=0; AC15_OpenCondition2=0;
                                  AC30_OpenCondition1=0; AC30_OpenCondition2=0; AC1_MaxSpread=6; AC5_MaxSpread=7; AC15_MaxSpread=8;
                                  AC30_MaxSpread=10; __AD_Parameters__="-- Settings for the Accumulation/Distribution indicator --"; AD_Active_Tf=12;
                                  AD_SignalLevel=0; AD_Shift=0; AD1_SignalMethod=0; AD5_SignalMethod=0; AD15_SignalMethod=0; AD30_SignalMethod=0;
                                  AD1_OpenCondition1=0; AD1_OpenCondition2=0; AD5_OpenCondition1=0; AD5_OpenCondition2=0; AD15_OpenCondition1=0;
                                  AD15_OpenCondition2=0; AD30_OpenCondition1=0; AD30_OpenCondition2=0; AD1_MaxSpread=6; AD5_MaxSpread=7;
                                  AD15_MaxSpread=8; AD30_MaxSpread=10; __ADX_Parameters__="-- Settings for the Average Directional Movement Index
                                  indicator --"; ADX_Active_Tf=0; ADX_Period_M1=24; ADX_Period_M5=14; ADX_Period_M15=30; ADX_Period_M30=26;
                                  ADX_SignalLevel=18.4; ADX_Shift=3; ADX1_SignalMethod=0; ADX5_SignalMethod=0; ADX15_SignalMethod=0;
                                  ADX30_SignalMethod=0; ADX1_OpenCondition1=0; ADX1_OpenCondition2=0; ADX5_OpenCondition1=0; ADX5_OpenCondition2=0;
                                  ADX15_OpenCondition1=0; ADX15_OpenCondition2=0; ADX30_OpenCondition1=0; ADX30_OpenCondition2=0; ADX1_MaxSpread=6;
                                  ADX5_MaxSpread=7; ADX15_MaxSpread=8; ADX30_MaxSpread=10; __Alligator_Parameters__="-- Settings for the Alligator
                                  indicator --"; Alligator_Active_Tf=13; Alligator_Period_Jaw=16; Alligator_Period_Teeth=8; Alligator_Period_Lips=6;
                                  Alligator_Shift_Jaw=5; Alligator_Shift_Teeth=7; Alligator_Shift_Lips=5; Alligator_Shift=2;
                                  Alligator_SignalLevel=0.1; Alligator1_SignalMethod=0; Alligator5_SignalMethod=0; Alligator15_SignalMethod=0;
                                  Alligator30_SignalMethod=0; Alligator1_OpenCondition1=0; Alligator1_OpenCondition2=0; Alligator5_OpenCondition1=0;
Bars in test                 1965 Ticks modelled                        8876483 Modelling quality                                              90.00%
Mismatched charts errors        0
Initial deposit          10000.00                                               Spread                                                             10
Total net profit         -1483.24 Gross profit                          6276.61 Gross loss                                                   -7759.84
Profit factor                0.81 Expected payoff                         -2.42
Absolute drawdown         1529.74 Maximal drawdown             3195.26 (27.39%) Relative drawdown                                    27.39% (3195.26)
Total trades                  614 Short positions (won %)          196 (27.55%) Long positions (won %)                                   418 (18.66%)
                                  Profit trades (% of total)       132 (21.50%) Loss trades (% of total)                                 482 (78.50%)
                          Largest profit trade                           171.58 loss trade                                                     -54.90
                          Average profit trade                            47.55 loss trade                                                     -16.10
                          Maximum consecutive wins (profit in        8 (252.04) consecutive losses (loss in money)                      64 (-1375.20)
                                  money)
                          Maximal consecutive profit (count of      1083.49 (7) consecutive loss (count of losses)                      -1375.20 (64)
                                  wins)
                          Average consecutive wins                            2 consecutive losses                                                  9
                                                                       [Graph]
