{
  "Time": "3",
  "Title": "Strategy Tester Report",
  "EA Name": "EA31337-Lite-Release-v1.078",
  "Build": "1010",
  "Symbol": "EURUSD (Euro vs US Dollar)",
  "Period": "30 Minutes (M30)  2018.04.01 21:00 - 2018.04.29 23:30    (2018.04.01 - 2018.04.30)",
  "Model": "Every tick ",
  "Initial deposit": "10000.00",
  "Spread": "10",
  "Modelling quality": "90.00%",
  "Parameters": "__EA_Parameters__=&#34;-- Input EA parameters for EA31337 Rider v1.078 --&#34;; __Trade_Parameters__=&#34;-- Trade parameters --&#34;; MaxOrders=0; MaxOrdersPerType=0; MaxOrdersPerDay=0; LotSize=0; LotSizeIncreaseMethod=202; LotSizeDecreaseMethod=167; TradeMicroLots=true; ,MinVolumeToTrade=2; MaxOrderPriceSlippage=50; MaxTries=5; MinPipChangeToTrade=0; MinPipGap=10; MinIntervalSec=0; __EA_Order_Parameters__=&#34;-- Profit and loss parameters --&#34;; TakeProfitMax=0; StopLossMax=40; __EA_Trailing_Parameters__=&#34;-- Profit and loss trailing parameters --&#34;; TrailingStop=50; TrailingProfit=0; TrailingStopAddPerMinute=0.3; __EA_Risk_Parameters__=&#34;-- Risk management parameters --&#34;; RiskMarginPerOrder=1; RiskMarginTotal=10; RiskRatio=0; RiskRatioIncreaseMethod=0; RiskRatioDecreaseMethod=0; InitNoOfDaysToWarmUp=14; CloseOrderAfterXHours=96; ApplySpreadLimits=true; ,MaxSpreadToTrade=10; __Strategy_Parameters__=&#34;-- Per strategy parameters (0 to disable) --&#34;; ProfitFactorMinToTrade=0.9; ProfitFactorMaxToTrade=0; InitNoOfOrdersToCalcPF=20; __Strategy_Boosting_Parameters__=&#34;-- Strategy boosting parameters (set 1.0 for default) --&#34;; Boosting_Enabled=false; ,BoostTrendFactor=0.9; StrategyBoostByPF=true; ,StrategyHandicapByPF=true; ,BestDailyStrategyMultiplierFactor=1; BestWeeklyStrategyMultiplierFactor=1; BestMonthlyStrategyMultiplierFactor=1; WorseDailyStrategyMultiplierFactor=1; WorseWeeklyStrategyMultiplierFactor=1; WorseMonthlyStrategyMultiplierFactor=1; ConWinsIncreaseFactor=0.4; ConLossesIncreaseFactor=0.7; ConFactorOrdersLimit=600; __SmartQueue_Parameters__=&#34;-- Smart queue parameters --&#34;; SmartQueueActive=true; ,SmartQueueMethod=11; SmartQueueFilter=91; __EA_Account_Conditions__=&#34;-- Account conditions --&#34;; Account_Conditions_Active=false; ,Account_Condition_MinProfitCloseOrder=20; __EA_Account_Conditions_Params__=&#34;-- Account conditions parameters --&#34;; MarketSpecificHour=3; CloseConditionOnlyProfitable=true; ,CloseConditionCustom1Method=0; CloseConditionCustom2Method=0; CloseConditionCustom3Method=0; CloseConditionCustom4Method=0; CloseConditionCustom5Method=0; CloseConditionCustom6Method=0; __AC_Parameters__=&#34;-- Settings for the Bill Williams&#39; Accelerator/Decelerator oscillator --&#34;; AC_Active_Tf=0; AC_SignalLevel=0.0004; AC_Shift=0; AC1_SignalMethod=0; AC5_SignalMethod=0; AC15_SignalMethod=0; AC30_SignalMethod=0; AC1_OpenCondition1=0; AC1_OpenCondition2=0; AC5_OpenCondition1=0; AC5_OpenCondition2=0; AC15_OpenCondition1=0; AC15_OpenCondition2=0; AC30_OpenCondition1=0; AC30_OpenCondition2=0; AC1_MaxSpread=6; AC5_MaxSpread=7; AC15_MaxSpread=8; AC30_MaxSpread=10; __AD_Parameters__=&#34;-- Settings for the Accumulation/Distribution indicator --&#34;; AD_Active_Tf=12; AD_SignalLevel=0; AD_Shift=0; AD1_SignalMethod=0; AD5_SignalMethod=0; AD15_SignalMethod=0; AD30_SignalMethod=0; AD1_OpenCondition1=0; AD1_OpenCondition2=0; AD5_OpenCondition1=0; AD5_OpenCondition2=0; AD15_OpenCondition1=0; AD15_OpenCondition2=0; AD30_OpenCondition1=0; AD30_OpenCondition2=0; AD1_MaxSpread=6; AD5_MaxSpread=7; AD15_MaxSpread=8; AD30_MaxSpread=10; __ADX_Parameters__=&#34;-- Settings for the Average Directional Movement Index indicator --&#34;; ADX_Active_Tf=0; ADX_Period_M1=24; ADX_Period_M5=14; ADX_Period_M15=30; ADX_Period_M30=26; ADX_SignalLevel=18.4; ADX_Shift=3; ADX1_SignalMethod=0; ADX5_SignalMethod=0; ADX15_SignalMethod=0; ADX30_SignalMethod=0; ADX1_OpenCondition1=0; ADX1_OpenCondition2=0; ADX5_OpenCondition1=0; ADX5_OpenCondition2=0; ADX15_OpenCondition1=0; ADX15_OpenCondition2=0; ADX30_OpenCondition1=0; ADX30_OpenCondition2=0; ADX1_MaxSpread=6; ADX5_MaxSpread=7; ADX15_MaxSpread=8; ADX30_MaxSpread=10; __Alligator_Parameters__=&#34;-- Settings for the Alligator indicator --&#34;; Alligator_Active_Tf=13; Alligator_Period_Jaw=16; Alligator_Period_Teeth=8; Alligator_Period_Lips=6; Alligator_Shift_Jaw=5; Alligator_Shift_Teeth=7; Alligator_Shift_Lips=5; Alligator_Shift=2; Alligator_SignalLevel=0.1; Alligator1_SignalMethod=0; Alligator5_SignalMethod=0; Alligator15_SignalMethod=0; Alligator30_SignalMethod=0; Alligator1_OpenCondition1=0; Alligator1_OpenCondition2=0; Alligator5_OpenCondition1=0; ",
  "Bars in test": "1927",
  "Ticks modelled": "7777673",
  "Mismatched charts errors": "0",
  "Total net profit": "-1375.62",
  "Gross profit": "3052.78",
  "Gross loss": "-4428.40",
  "Profit factor": "0.69",
  "Expected payoff": "-4.37",
  "Absolute drawdown": "1928.99",
  "Maximal drawdown": "2562.74 (24.10%)",
  "Relative drawdown": "24.10% (2562.74)",
  "Total trades": "315",
  "Short positions": "106 (34.91%)",
  "Long positions": "209 (11.96%)",
  "Profit trades": "62 (19.68%)",
  "Loss trades": "253 (80.32%)",
  "profit trade": "169.58,49.24",
  "loss trade": "-61.70,-17.50",
  "consecutive wins (profit in money)": "6 (498.21)",
  "consecutive losses (loss in money)": "90 (-1166.52)",
  "consecutive profit": "498.21 (6)",
  "consecutive loss": "90 (-1166.52),-1166.52 (90),10",
  "consecutive wins": "6 (498.21),2",
  "consecutive losses": "90 (-1166.52),10"
}
